Create a rotation table from a modelled PCA object. — make_rotation_table • Twenty
…
    Value

    rt

    Author

    Miss Oriade Latifah Simpson, s172084@dtu.dk

    Examples

data("wide_wide_west")
west_data_wide
#> # A tibble: 49 × 101
#>    value gene_132 gene_1475 gene_6915 gene_117 gene_3068 gene_2046 gene_452
#>    <dbl>    <dbl>     <dbl>     <dbl>    <dbl>     <dbl>     <dbl>    <dbl>
#>  1     1  -0.867   -0.0516    -0.867    1.43       1.05   -0.00659  -0.819 
#>  2     1  -0.830    0.133     -0.509    0.455      0.981   0.361    -0.830 
#>  3     1   0.0121  -0.383     -0.849    1.50       0.924  -0.756    -0.425 
#>  4     1  -0.820   -0.445     -0.804    0.0512     1.19    0.130    -0.820 
#>  5     1  -0.828    0.0426    -0.639    1.21       0.841   0.0621    0.128 
#>  6     1  -0.788    0.00666   -0.0769   1.28       0.691  -0.442    -0.788 
#>  7     0   0.933   -0.888      1.17     2.46       0.435   0.931     0.0815
#>  8     0   0.157   -0.944      1.24     2.26      -0.944   0.875    -0.944 
#>  9     0   0.529   -0.252      1.26     0.666      0.992   0.557    -0.184 
#> 10     0   0.452   -0.328      0.133    2.01       0.993   0.222    -0.480 
#> # … with 39 more rows, and 93 more variables: gene_6962 <dbl>, gene_2773 <dbl>,
#> #   gene_5886 <dbl>, gene_121 <dbl>, gene_4016 <dbl>, gene_4373 <dbl>,
#> #   gene_1194 <dbl>, gene_1933 <dbl>, gene_4843 <dbl>, gene_3400 <dbl>,
#> #   gene_4643 <dbl>, gene_6708 <dbl>, gene_6086 <dbl>, gene_6341 <dbl>,
#> #   gene_4213 <dbl>, gene_4582 <dbl>, gene_4585 <dbl>, gene_5718 <dbl>,
#> #   gene_79 <dbl>, gene_6660 <dbl>, gene_4803 <dbl>, gene_1621 <dbl>,
#> #   gene_2065 <dbl>, gene_5055 <dbl>, gene_119 <dbl>, gene_6256 <dbl>, …
…
#> gene_5232  0.0482111600 -0.026754943  0.155113431  0.094859524
#> gene_5696  0.0959076013  0.003675922 -0.173904039  0.007440769
#> gene_6211  0.0385427872 -0.022909383  0.026508825  0.011940217
#> gene_5360 -0.1117729736  0.003102004  0.070595126  0.111962098
#> gene_6221 -0.0503956616  0.102924424  0.078084950  0.046365103
#> gene_226  -0.1984632451  0.051362911 -0.062598133  0.307942269
#> gene_2564  0.0926053759  0.069536180  0.022465504  0.012720348
#> gene_123   0.1661806940 -0.031777178  0.041047391  0.072756814
#> gene_3603 -0.0515687858  0.084894814  0.054560866  0.117347235
#> gene_195   0.0811194082  0.012455844  0.059379080 -0.007624122
#> gene_2600 -0.1000318511 -0.028961142  0.163435106  0.025398000
#> gene_1866 -0.0237717465 -0.005622666 -0.017681977 -0.168470879
rot_tab <- make_rotation_table(fitted_pca_object)
rot_tab
#> # A tibble: 4,949 × 3
#>    column    PC    value
#>    <chr>  <dbl>    <dbl>
#>  1 value      1 -0.166  
#>  2 value      2 -0.0167 
#>  3 value      3 -0.0448 
#>  4 value      4 -0.0226 
#>  5 value      5 -0.00578
#>  6 value      6 -0.0116 
#>  7 value      7  0.0419 
#>  8 value      8  0.0625 
#>  9 value      9  0.0817 
#> 10 value     10  0.0894 
#> # … with 4,939 more rows
…
